%YAML 1.1
%TAG !u! tag:unity3d.com,2011:
--- !u!55 &1
PhysicsManager:
  m_ObjectHideFlags: 0
  serializedVersion: 13
  m_Gravity: {x: 0, y: -9.81, z: 0}
  m_DefaultMaterial: {fileID: 0}
  m_BounceThreshold: 2
  m_DefaultMaxDepenetrationVelocity: 10
  m_SleepThreshold: 0.005
  m_DefaultContactOffset: 0.01
  m_DefaultSolverIterations: 3
  m_DefaultSolverVelocityIterations: 1
  m_QueriesHitBackfaces: 0
  m_QueriesHitTriggers: 1
  m_EnableAdaptiveForce: 0
  m_ClothInterCollisionDistance: 0
  m_ClothInterCollisionStiffness: 0
  m_ContactsGeneration: 1
  m_LayerCollisionMatrix: ff5bc5ffff4bc5ffcb00d0fffffffffffb5bc5fffb4bc5fffffffffffffffffffb7ffffffb7fddffc86bdbfffb7ffdffd95bd1ffc84fd1fffb7fddffc880c0fffb7fdfffc805c1fffb4bc5ffc84fd9ffcc7ff9ffc809f0ffffffffffffffffffffffffffffffffffffffffffffffffffffffffffffffffffffffffffffffffff
  m_AutoSimulation: 1
  m_AutoSyncTransforms: 0
  m_ReuseCollisionCallbacks: 0
  m_ClothInterCollisionSettingsToggle: 0
  m_ClothGravity: {x: 0, y: -9.81, z: 0}
  m_ContactPairsMode: 0
  m_BroadphaseType: 0
  m_WorldBounds:
    m_Center: {x: 0, y: 0, z: 0}
    m_Extent: {x: 50, y: 50, z: 50}
  m_WorldSubdivisions: 16
  m_FrictionType: 0
  m_EnableEnhancedDeterminism: 0
  m_EnableUnifiedHeightmaps: 1
  m_SolverType: 0
  m_DefaultMaxAngularSpeed: 7
