%YAML 1.1
%TAG !u! tag:unity3d.com,2011:
--- !u!1045 &1
EditorBuildSettings:
  m_ObjectHideFlags: 0
  serializedVersion: 2
  m_Scenes:
  - enabled: 1
    path: Assets/Scenes/MainMenu.unity
    guid: ced8706ccd7cccd4eb65b065098298c8
  - enabled: 1
    path: Assets/Scenes/Levels/Level 1 Dunes.unity
    guid: 912e27f499024be43aa30960b7844e98
  m_configObjects: {}
